{
  "spectrograms": {
    "frame_sizes": [
      1024,
      2048,
      4096
    ],
    "hop_size": 441,
    "num_bands": 20
  },
  "paths": {
    "files": {
      "logs": "run_config.log",
      "train_logs": "train_logs.csv",
      "epoch_history": "epoch_history.pickle",
      "epoch_times": "epoch_times.pickle",
      "state": "state.json",
      "model": "model.hdf5",
      "pickle_index": "index.pickle",
      "pickle_index_limited": "index_limited.pickle"
    },
    "dirs": {
      "audio": "/mnt/DATA/IIMAS/Beattracking_Data/READABLE/GTZAN/Audio",
      "annotations": "/mnt/DATA/IIMAS/Beattracking_Data/READABLE/GTZAN/Annotations",
      "audio_test_eval": "/mnt/DATA/IIMAS/Beattracking_Data/READABLE/GTZAN/Test_GTZAN",
      "store": "/mnt/DATA/IIMAS/Beattracking_Data/store",
      "sandbox": "/mnt/DATA/IIMAS/Beattracking_Data/sandbox",
      "pickle": "/mnt/DATA/IIMAS/Beattracking_Data/pickle",
      "pickle_test_eval": "/mnt/DATA/IIMAS/Beattracking_Data/pickle/testing",
      "test_env": "/mnt/DATA/IIMAS/REPOS/beattracker/test",
      "run_configs": "/mnt/DATA/IIMAS/REPOS/beattracker/run_configs",
      "run_logs": "/mnt/DATA/IIMAS/REPOS/beattracker/run_configs/logs"
    }
  }
}
